%YAML 1.1
%TAG !u! tag:unity3d.com,2011:
--- !u!74 &7400000
AnimationClip:
  m_ObjectHideFlags: 0
  m_PrefabParentObject: {fileID: 0}
  m_PrefabInternal: {fileID: 0}
  m_Name: NinjaRun
  serializedVersion: 6
  m_Legacy: 0
  m_Compressed: 0
  m_UseHighQualityCurve: 1
  m_RotationCurves: []
  m_CompressedRotationCurves: []
  m_EulerCurves: []
  m_PositionCurves: []
  m_ScaleCurves: []
  m_FloatCurves: []
  m_PPtrCurves:
  - curve:
    - time: 0
      value: {fileID: 21300000, guid: 3f9ee8557c8f6e44fa02a00e2108f5e3, type: 3}
    - time: 0.083333336
      value: {fileID: 21300000, guid: e80d86a4c2d6f4142aa5f5734c8e246d, type: 3}
    - time: 0.16666667
      value: {fileID: 21300000, guid: 6f0f96cc2d43619479964630759221ef, type: 3}
    - time: 0.25
      value: {fileID: 21300000, guid: 8434dfd1ae11eb040938f212ba3ddcee, type: 3}
    - time: 0.33333334
      value: {fileID: 21300000, guid: bb8be9706c6911c45be85e8c04408a1d, type: 3}
    - time: 0.41666666
      value: {fileID: 21300000, guid: 4a645004f6da87641814a640d73c5448, type: 3}
    - time: 0.5
      value: {fileID: 21300000, guid: a162ef8f3231d5d42afcd91473aa4660, type: 3}
    - time: 0.5833333
      value: {fileID: 21300000, guid: a5ba7a03ab2e2f54dbf8d0af43ad0e4f, type: 3}
    - time: 0.6666667
      value: {fileID: 21300000, guid: 01e3702e600990a46bed6e10088a98ad, type: 3}
    - time: 0.75
      value: {fileID: 21300000, guid: 476a408976fcb1a46b406f660bd362c1, type: 3}
    attribute: m_Sprite
    path: 
    classID: 212
    script: {fileID: 0}
  m_SampleRate: 12
  m_WrapMode: 0
  m_Bounds:
    m_Center: {x: 0, y: 0, z: 0}
    m_Extent: {x: 0, y: 0, z: 0}
  m_ClipBindingConstant:
    genericBindings:
    - serializedVersion: 2
      path: 0
      attribute: 0
      script: {fileID: 0}
      typeID: 212
      customType: 23
      isPPtrCurve: 1
    pptrCurveMapping:
    - {fileID: 21300000, guid: 3f9ee8557c8f6e44fa02a00e2108f5e3, type: 3}
    - {fileID: 21300000, guid: e80d86a4c2d6f4142aa5f5734c8e246d, type: 3}
    - {fileID: 21300000, guid: 6f0f96cc2d43619479964630759221ef, type: 3}
    - {fileID: 21300000, guid: 8434dfd1ae11eb040938f212ba3ddcee, type: 3}
    - {fileID: 21300000, guid: bb8be9706c6911c45be85e8c04408a1d, type: 3}
    - {fileID: 21300000, guid: 4a645004f6da87641814a640d73c5448, type: 3}
    - {fileID: 21300000, guid: a162ef8f3231d5d42afcd91473aa4660, type: 3}
    - {fileID: 21300000, guid: a5ba7a03ab2e2f54dbf8d0af43ad0e4f, type: 3}
    - {fileID: 21300000, guid: 01e3702e600990a46bed6e10088a98ad, type: 3}
    - {fileID: 21300000, guid: 476a408976fcb1a46b406f660bd362c1, type: 3}
  m_AnimationClipSettings:
    serializedVersion: 2
    m_AdditiveReferencePoseClip: {fileID: 0}
    m_AdditiveReferencePoseTime: 0
    m_StartTime: 0
    m_StopTime: 0.8333333
    m_OrientationOffsetY: 0
    m_Level: 0
    m_CycleOffset: 0
    m_HasAdditiveReferencePose: 0
    m_LoopTime: 1
    m_LoopBlend: 0
    m_LoopBlendOrientation: 0
    m_LoopBlendPositionY: 0
    m_LoopBlendPositionXZ: 0
    m_KeepOriginalOrientation: 0
    m_KeepOriginalPositionY: 1
    m_KeepOriginalPositionXZ: 0
    m_HeightFromFeet: 0
    m_Mirror: 0
  m_EditorCurves: []
  m_EulerEditorCurves: []
  m_HasGenericRootTransform: 0
  m_HasMotionFloatCurves: 0
  m_GenerateMotionCurves: 0
  m_Events: []
