%YAML 1.1
%TAG !u! tag:unity3d.com,2011:
--- !u!74 &7400000
AnimationClip:
  m_ObjectHideFlags: 0
  m_PrefabParentObject: {fileID: 0}
  m_PrefabInternal: {fileID: 0}
  m_Name: IdleAdvGirl
  serializedVersion: 6
  m_Legacy: 0
  m_Compressed: 0
  m_UseHighQualityCurve: 1
  m_RotationCurves: []
  m_CompressedRotationCurves: []
  m_EulerCurves: []
  m_PositionCurves: []
  m_ScaleCurves: []
  m_FloatCurves: []
  m_PPtrCurves:
  - curve:
    - time: 0
      value: {fileID: 21300000, guid: 80ca78434da12314283b0af38c9de8f8, type: 3}
    - time: 0.083333336
      value: {fileID: 21300000, guid: c9114267dc5898a4cbeeae68cbf0b131, type: 3}
    - time: 0.16666667
      value: {fileID: 21300000, guid: 807eb661dca9530489ab5c6a79ffcd0e, type: 3}
    - time: 0.25
      value: {fileID: 21300000, guid: 91c52d5a4f822174faeb4775d8d27839, type: 3}
    - time: 0.33333334
      value: {fileID: 21300000, guid: 9bfeb17665753a4419653099c7dcb5ae, type: 3}
    - time: 0.41666666
      value: {fileID: 21300000, guid: cfa837db841093945a3cbc816776e16a, type: 3}
    - time: 0.5
      value: {fileID: 21300000, guid: 4fcb4cefd1cccd24c8df85541f4a1254, type: 3}
    - time: 0.5833333
      value: {fileID: 21300000, guid: 9cfca62ef8b47734f84cef9aa71aa792, type: 3}
    - time: 0.6666667
      value: {fileID: 21300000, guid: e2c45d5262d77574f8d71fc4da748a5c, type: 3}
    - time: 0.75
      value: {fileID: 21300000, guid: 36804bb9fa934054f8227fb27e7320e4, type: 3}
    attribute: m_Sprite
    path: 
    classID: 212
    script: {fileID: 0}
  m_SampleRate: 12
  m_WrapMode: 0
  m_Bounds:
    m_Center: {x: 0, y: 0, z: 0}
    m_Extent: {x: 0, y: 0, z: 0}
  m_ClipBindingConstant:
    genericBindings:
    - serializedVersion: 2
      path: 0
      attribute: 0
      script: {fileID: 0}
      typeID: 212
      customType: 23
      isPPtrCurve: 1
    pptrCurveMapping:
    - {fileID: 21300000, guid: 80ca78434da12314283b0af38c9de8f8, type: 3}
    - {fileID: 21300000, guid: c9114267dc5898a4cbeeae68cbf0b131, type: 3}
    - {fileID: 21300000, guid: 807eb661dca9530489ab5c6a79ffcd0e, type: 3}
    - {fileID: 21300000, guid: 91c52d5a4f822174faeb4775d8d27839, type: 3}
    - {fileID: 21300000, guid: 9bfeb17665753a4419653099c7dcb5ae, type: 3}
    - {fileID: 21300000, guid: cfa837db841093945a3cbc816776e16a, type: 3}
    - {fileID: 21300000, guid: 4fcb4cefd1cccd24c8df85541f4a1254, type: 3}
    - {fileID: 21300000, guid: 9cfca62ef8b47734f84cef9aa71aa792, type: 3}
    - {fileID: 21300000, guid: e2c45d5262d77574f8d71fc4da748a5c, type: 3}
    - {fileID: 21300000, guid: 36804bb9fa934054f8227fb27e7320e4, type: 3}
  m_AnimationClipSettings:
    serializedVersion: 2
    m_AdditiveReferencePoseClip: {fileID: 0}
    m_AdditiveReferencePoseTime: 0
    m_StartTime: 0
    m_StopTime: 0.8333333
    m_OrientationOffsetY: 0
    m_Level: 0
    m_CycleOffset: 0
    m_HasAdditiveReferencePose: 0
    m_LoopTime: 1
    m_LoopBlend: 0
    m_LoopBlendOrientation: 0
    m_LoopBlendPositionY: 0
    m_LoopBlendPositionXZ: 0
    m_KeepOriginalOrientation: 0
    m_KeepOriginalPositionY: 1
    m_KeepOriginalPositionXZ: 0
    m_HeightFromFeet: 0
    m_Mirror: 0
  m_EditorCurves: []
  m_EulerEditorCurves: []
  m_HasGenericRootTransform: 0
  m_HasMotionFloatCurves: 0
  m_GenerateMotionCurves: 0
  m_Events: []
