%YAML 1.1
%TAG !u! tag:unity3d.com,2011:
--- !u!74 &7400000
AnimationClip:
  m_ObjectHideFlags: 0
  m_PrefabParentObject: {fileID: 0}
  m_PrefabInternal: {fileID: 0}
  m_Name: DogDead
  serializedVersion: 6
  m_Legacy: 0
  m_Compressed: 0
  m_UseHighQualityCurve: 1
  m_RotationCurves: []
  m_CompressedRotationCurves: []
  m_EulerCurves: []
  m_PositionCurves: []
  m_ScaleCurves: []
  m_FloatCurves: []
  m_PPtrCurves:
  - curve:
    - time: 0
      value: {fileID: 21300000, guid: 6b93c33577b924944bedba1129a0ae22, type: 3}
    - time: 0.083333336
      value: {fileID: 21300000, guid: 9f55caff823b1724882896fbfb592545, type: 3}
    - time: 0.16666667
      value: {fileID: 21300000, guid: ad4ff59cf5894e841a98b96b2fe0e9cb, type: 3}
    - time: 0.25
      value: {fileID: 21300000, guid: bc4dbd8120c762040a8aa7d665e8e211, type: 3}
    - time: 0.33333334
      value: {fileID: 21300000, guid: c7802c3cd27b7a94b801c640c8df59a4, type: 3}
    - time: 0.41666666
      value: {fileID: 21300000, guid: 29dc97046d9938b43a3b98bbe580dd73, type: 3}
    - time: 0.5
      value: {fileID: 21300000, guid: 763e79e280b4fce418f8496c9a4ce140, type: 3}
    - time: 0.5833333
      value: {fileID: 21300000, guid: de7ebeb58d256cb48b6c8f73821fec2e, type: 3}
    - time: 0.6666667
      value: {fileID: 21300000, guid: f3e588649471d464bb141c0f97fa9886, type: 3}
    - time: 0.75
      value: {fileID: 21300000, guid: 1b31b5df63702464aba2b2047315d81f, type: 3}
    attribute: m_Sprite
    path: 
    classID: 212
    script: {fileID: 0}
  m_SampleRate: 12
  m_WrapMode: 0
  m_Bounds:
    m_Center: {x: 0, y: 0, z: 0}
    m_Extent: {x: 0, y: 0, z: 0}
  m_ClipBindingConstant:
    genericBindings:
    - serializedVersion: 2
      path: 0
      attribute: 0
      script: {fileID: 0}
      typeID: 212
      customType: 23
      isPPtrCurve: 1
    pptrCurveMapping:
    - {fileID: 21300000, guid: 6b93c33577b924944bedba1129a0ae22, type: 3}
    - {fileID: 21300000, guid: 9f55caff823b1724882896fbfb592545, type: 3}
    - {fileID: 21300000, guid: ad4ff59cf5894e841a98b96b2fe0e9cb, type: 3}
    - {fileID: 21300000, guid: bc4dbd8120c762040a8aa7d665e8e211, type: 3}
    - {fileID: 21300000, guid: c7802c3cd27b7a94b801c640c8df59a4, type: 3}
    - {fileID: 21300000, guid: 29dc97046d9938b43a3b98bbe580dd73, type: 3}
    - {fileID: 21300000, guid: 763e79e280b4fce418f8496c9a4ce140, type: 3}
    - {fileID: 21300000, guid: de7ebeb58d256cb48b6c8f73821fec2e, type: 3}
    - {fileID: 21300000, guid: f3e588649471d464bb141c0f97fa9886, type: 3}
    - {fileID: 21300000, guid: 1b31b5df63702464aba2b2047315d81f, type: 3}
  m_AnimationClipSettings:
    serializedVersion: 2
    m_AdditiveReferencePoseClip: {fileID: 0}
    m_AdditiveReferencePoseTime: 0
    m_StartTime: 0
    m_StopTime: 0.8333333
    m_OrientationOffsetY: 0
    m_Level: 0
    m_CycleOffset: 0
    m_HasAdditiveReferencePose: 0
    m_LoopTime: 0
    m_LoopBlend: 0
    m_LoopBlendOrientation: 0
    m_LoopBlendPositionY: 0
    m_LoopBlendPositionXZ: 0
    m_KeepOriginalOrientation: 0
    m_KeepOriginalPositionY: 1
    m_KeepOriginalPositionXZ: 0
    m_HeightFromFeet: 0
    m_Mirror: 0
  m_EditorCurves: []
  m_EulerEditorCurves: []
  m_HasGenericRootTransform: 0
  m_HasMotionFloatCurves: 0
  m_GenerateMotionCurves: 0
  m_Events: []
