%YAML 1.1
%TAG !u! tag:unity3d.com,2011:
--- !u!74 &7400000
AnimationClip:
  m_ObjectHideFlags: 0
  m_PrefabParentObject: {fileID: 0}
  m_PrefabInternal: {fileID: 0}
  m_Name: IdleDog
  serializedVersion: 6
  m_Legacy: 0
  m_Compressed: 0
  m_UseHighQualityCurve: 1
  m_RotationCurves: []
  m_CompressedRotationCurves: []
  m_EulerCurves: []
  m_PositionCurves: []
  m_ScaleCurves: []
  m_FloatCurves: []
  m_PPtrCurves:
  - curve:
    - time: 0
      value: {fileID: 21300000, guid: 7a014a9e4a2e1c043964eae22638d127, type: 3}
    - time: 0.083333336
      value: {fileID: 21300000, guid: dc51f8e3f5b47114a819a34c61a3484f, type: 3}
    - time: 0.16666667
      value: {fileID: 21300000, guid: 2b022ddbbd31a814db6206f84583bd4a, type: 3}
    - time: 0.25
      value: {fileID: 21300000, guid: 0c527535b2294704e973a2d939f4068d, type: 3}
    - time: 0.33333334
      value: {fileID: 21300000, guid: 93e3a0772770c6649a49b7b2f6b4fcb1, type: 3}
    - time: 0.41666666
      value: {fileID: 21300000, guid: 32d8aef348dfa2442bbadf8ed996c377, type: 3}
    - time: 0.5
      value: {fileID: 21300000, guid: 9c77d6939e94f9d419a792d6840304fc, type: 3}
    - time: 0.5833333
      value: {fileID: 21300000, guid: 203794c47bc71bb41a00f5f6e9ded153, type: 3}
    - time: 0.6666667
      value: {fileID: 21300000, guid: edef3201bc098aa4f88953b654429ca4, type: 3}
    - time: 0.75
      value: {fileID: 21300000, guid: a4766feff06b1ab4885d774641ea91ff, type: 3}
    attribute: m_Sprite
    path: 
    classID: 212
    script: {fileID: 0}
  m_SampleRate: 12
  m_WrapMode: 0
  m_Bounds:
    m_Center: {x: 0, y: 0, z: 0}
    m_Extent: {x: 0, y: 0, z: 0}
  m_ClipBindingConstant:
    genericBindings:
    - serializedVersion: 2
      path: 0
      attribute: 0
      script: {fileID: 0}
      typeID: 212
      customType: 23
      isPPtrCurve: 1
    pptrCurveMapping:
    - {fileID: 21300000, guid: 7a014a9e4a2e1c043964eae22638d127, type: 3}
    - {fileID: 21300000, guid: dc51f8e3f5b47114a819a34c61a3484f, type: 3}
    - {fileID: 21300000, guid: 2b022ddbbd31a814db6206f84583bd4a, type: 3}
    - {fileID: 21300000, guid: 0c527535b2294704e973a2d939f4068d, type: 3}
    - {fileID: 21300000, guid: 93e3a0772770c6649a49b7b2f6b4fcb1, type: 3}
    - {fileID: 21300000, guid: 32d8aef348dfa2442bbadf8ed996c377, type: 3}
    - {fileID: 21300000, guid: 9c77d6939e94f9d419a792d6840304fc, type: 3}
    - {fileID: 21300000, guid: 203794c47bc71bb41a00f5f6e9ded153, type: 3}
    - {fileID: 21300000, guid: edef3201bc098aa4f88953b654429ca4, type: 3}
    - {fileID: 21300000, guid: a4766feff06b1ab4885d774641ea91ff, type: 3}
  m_AnimationClipSettings:
    serializedVersion: 2
    m_AdditiveReferencePoseClip: {fileID: 0}
    m_AdditiveReferencePoseTime: 0
    m_StartTime: 0
    m_StopTime: 0.8333333
    m_OrientationOffsetY: 0
    m_Level: 0
    m_CycleOffset: 0
    m_HasAdditiveReferencePose: 0
    m_LoopTime: 1
    m_LoopBlend: 0
    m_LoopBlendOrientation: 0
    m_LoopBlendPositionY: 0
    m_LoopBlendPositionXZ: 0
    m_KeepOriginalOrientation: 0
    m_KeepOriginalPositionY: 1
    m_KeepOriginalPositionXZ: 0
    m_HeightFromFeet: 0
    m_Mirror: 0
  m_EditorCurves: []
  m_EulerEditorCurves: []
  m_HasGenericRootTransform: 0
  m_HasMotionFloatCurves: 0
  m_GenerateMotionCurves: 0
  m_Events: []
