%YAML 1.1
%TAG !u! tag:unity3d.com,2011:
--- !u!74 &7400000
AnimationClip:
  m_ObjectHideFlags: 0
  m_PrefabParentObject: {fileID: 0}
  m_PrefabInternal: {fileID: 0}
  m_Name: zombieRun
  serializedVersion: 6
  m_Legacy: 0
  m_Compressed: 0
  m_UseHighQualityCurve: 1
  m_RotationCurves: []
  m_CompressedRotationCurves: []
  m_EulerCurves: []
  m_PositionCurves: []
  m_ScaleCurves: []
  m_FloatCurves: []
  m_PPtrCurves:
  - curve:
    - time: 0
      value: {fileID: 21300000, guid: b99bf7a70fb31e54cba9894f2c0552a9, type: 3}
    - time: 0.083333336
      value: {fileID: 21300000, guid: 029c56c27c74bfb45a62705c14e840e8, type: 3}
    - time: 0.16666667
      value: {fileID: 21300000, guid: e476b0f3f9927f841b51ecb2eef39d82, type: 3}
    - time: 0.25
      value: {fileID: 21300000, guid: be1fadfffdde44a41bbbb43d2b4f79e2, type: 3}
    - time: 0.33333334
      value: {fileID: 21300000, guid: 1a4c8207f6535b04db7b0c1aeabba41a, type: 3}
    - time: 0.41666666
      value: {fileID: 21300000, guid: 7cd2d7a69325f444f976f639a0de148c, type: 3}
    - time: 0.5
      value: {fileID: 21300000, guid: b39d892f611dcd44eb0a9e1018ddec2f, type: 3}
    - time: 0.5833333
      value: {fileID: 21300000, guid: 16b6d346110906f48b232d82932e1c62, type: 3}
    - time: 0.6666667
      value: {fileID: 21300000, guid: 3f5c9192e66c27f48b4e7fe8e1eafc96, type: 3}
    - time: 0.75
      value: {fileID: 21300000, guid: 8905934f85107f7459e8f8e8f5c2036f, type: 3}
    attribute: m_Sprite
    path: 
    classID: 212
    script: {fileID: 0}
  m_SampleRate: 12
  m_WrapMode: 0
  m_Bounds:
    m_Center: {x: 0, y: 0, z: 0}
    m_Extent: {x: 0, y: 0, z: 0}
  m_ClipBindingConstant:
    genericBindings:
    - serializedVersion: 2
      path: 0
      attribute: 0
      script: {fileID: 0}
      typeID: 212
      customType: 23
      isPPtrCurve: 1
    pptrCurveMapping:
    - {fileID: 21300000, guid: b99bf7a70fb31e54cba9894f2c0552a9, type: 3}
    - {fileID: 21300000, guid: 029c56c27c74bfb45a62705c14e840e8, type: 3}
    - {fileID: 21300000, guid: e476b0f3f9927f841b51ecb2eef39d82, type: 3}
    - {fileID: 21300000, guid: be1fadfffdde44a41bbbb43d2b4f79e2, type: 3}
    - {fileID: 21300000, guid: 1a4c8207f6535b04db7b0c1aeabba41a, type: 3}
    - {fileID: 21300000, guid: 7cd2d7a69325f444f976f639a0de148c, type: 3}
    - {fileID: 21300000, guid: b39d892f611dcd44eb0a9e1018ddec2f, type: 3}
    - {fileID: 21300000, guid: 16b6d346110906f48b232d82932e1c62, type: 3}
    - {fileID: 21300000, guid: 3f5c9192e66c27f48b4e7fe8e1eafc96, type: 3}
    - {fileID: 21300000, guid: 8905934f85107f7459e8f8e8f5c2036f, type: 3}
  m_AnimationClipSettings:
    serializedVersion: 2
    m_AdditiveReferencePoseClip: {fileID: 0}
    m_AdditiveReferencePoseTime: 0
    m_StartTime: 0
    m_StopTime: 0.8333333
    m_OrientationOffsetY: 0
    m_Level: 0
    m_CycleOffset: 0
    m_HasAdditiveReferencePose: 0
    m_LoopTime: 1
    m_LoopBlend: 0
    m_LoopBlendOrientation: 0
    m_LoopBlendPositionY: 0
    m_LoopBlendPositionXZ: 0
    m_KeepOriginalOrientation: 0
    m_KeepOriginalPositionY: 1
    m_KeepOriginalPositionXZ: 0
    m_HeightFromFeet: 0
    m_Mirror: 0
  m_EditorCurves: []
  m_EulerEditorCurves: []
  m_HasGenericRootTransform: 0
  m_HasMotionFloatCurves: 0
  m_GenerateMotionCurves: 0
  m_Events: []
